…
Which also works with `group_by()`:

``` r
airquality %>% 
  group_by(Month) %>% 
  miss_var_summary()
```

    # A tibble: 25 × 4
    # Groups:   Month [5]
       Month variable n_miss pct_miss
       <int> <chr>     <int>    <dbl>
     1     5 Ozone         5     16.1
     2     5 Solar.R       4     12.9
     3     5 Wind          0      0  
     4     5 Temp          0      0  
     5     5 Day           0      0  
     6     6 Ozone        21     70  
     7     6 Solar.R       0      0  
     8     6 Wind          0      0  
     9     6 Temp          0      0  
    10     6 Day           0      0  
    # ℹ 15 more rows

Similarly, there is a `data_vis_miss()` function in the `visdat`
package, which returns the data in the format that this visualisation
requires.

``` r
data_vis_miss(airquality)
```

    # A tibble: 918 × 4
        rows variable valueType value
       <int> <chr>    <chr>     <chr>
     1     1 Day      FALSE     FALSE
     2     1 Month    FALSE     FALSE
     3     1 Ozone    FALSE     FALSE
     4     1 Solar.R  FALSE     FALSE
     5     1 Temp     FALSE     FALSE
     6     1 Wind     FALSE     FALSE
     7     2 Day      FALSE     FALSE
     8     2 Month    FALSE     FALSE
     9     2 Ozone    FALSE     FALSE
    10     2 Solar.R  FALSE     FALSE
    # ℹ 908 more rows
…
``` r
pct_miss_case(airquality)
```

    [1] 27.45098

`miss_case_summary()` returns a numeric value that describes the number
of missings in a given case (aka row), the percent of missings in that
row.

``` r
miss_case_summary(airquality)
```

    # A tibble: 153 × 3
        case n_miss pct_miss
       <int>  <int>    <dbl>
     1     5      2     33.3
     2    27      2     33.3
     3     6      1     16.7
     4    10      1     16.7
     5    11      1     16.7
     6    25      1     16.7
     7    26      1     16.7
     8    32      1     16.7
     9    33      1     16.7
    10    34      1     16.7
    # ℹ 143 more rows
…
To use `miss_var_run()`, you specify the variable that you want to
explore the runs of missingness for, in this case, `hourly_counts`:

``` r
miss_var_run(pedestrian,
             hourly_counts)
```

    # A tibble: 35 × 2
       run_length is_na   
            <int> <chr>   
     1       6628 complete
     2          1 missing 
     3       5250 complete
     4        624 missing 
     5       3652 complete
     6          1 missing 
     7       1290 complete
     8        744 missing 
     9       7420 complete
    10          1 missing 
    # ℹ 25 more rows

`miss_var_span()` is used to determine the number of missings over a
specified repeating span of rows in variable of a dataframe. Similar to
`miss_var_run()`, you specify the variable that you wish to explore, you
then also specify the size of the span with the `span_every` argument.

``` r
miss_var_span(pedestrian,
              hourly_counts,
              span_every = 100)
```

    # A tibble: 377 × 6
       span_counter n_miss n_complete prop_miss prop_complete n_in_span
              <int>  <int>      <int>     <dbl>         <dbl>     <int>
     1            1      0        100         0             1       100
     2            2      0        100         0             1       100
     3            3      0        100         0             1       100
     4            4      0        100         0             1       100
     5            5      0        100         0             1       100
     6            6      0        100         0             1       100
     7            7      0        100         0             1       100
     8            8      0        100         0             1       100
     9            9      0        100         0             1       100
    10           10      0        100         0             1       100
    # ℹ 367 more rows
…
Note that we no longer get any errors regarding missing observations -
because they are all imputed! But this comes at a cost: we also no
longer have information about where the imputations are - they are now
sort of invisible.

We can track a copy of the missing data locations by using the function
`nabular()`, which binds another dataset to the current one which notes
the locations of the missing data. This is a really important idea with
`naniar`, but to keep it brief, the data looks like this:

``` r
nabular(airquality)
```

    # A tibble: 153 × 12
       Ozone Solar.R  Wind  Temp Month   Day Ozone_NA Solar.R_NA Wind_NA Temp_NA
       <int>   <int> <dbl> <int> <int> <int> <fct>    <fct>      <fct>   <fct>  
     1    41     190   7.4    67     5     1 !NA      !NA        !NA     !NA    
     2    36     118   8      72     5     2 !NA      !NA        !NA     !NA    
     3    12     149  12.6    74     5     3 !NA      !NA        !NA     !NA    
     4    18     313  11.5    62     5     4 !NA      !NA        !NA     !NA    
     5    NA      NA  14.3    56     5     5 NA       NA         !NA     !NA    
     6    28      NA  14.9    66     5     6 !NA      NA         !NA     !NA    
     7    23     299   8.6    65     5     7 !NA      !NA        !NA     !NA    
     8    19      99  13.8    59     5     8 !NA      !NA        !NA     !NA    
     9     8      19  20.1    61     5     9 !NA      !NA        !NA     !NA    
    10    NA     194   8.6    69     5    10 NA       !NA        !NA     !NA    
    # ℹ 143 more rows
    # ℹ 2 more variables: Month_NA <fct>, Day_NA <fct>
…
